{
    "equipamientosDeportivos": [
        "Colchonetas deportivas",
        "Adaptador plancha rebote para cesped artificial",
        "Armario con estantes",
        "Armario multiuso de baloncesto",
        "Aro de baloncesto",
        "Malla de Volleyball",
        "Asiento de grada A2",
        "Asiento de grada CR4",
        "Asiento de grada G3",
        "Bancada de asientos",
        "Banco alemán",
        "Banderin de corner (Futbol)",
        "Porteria de Futbol (Futbol Sala)",
        "Porteria de Futbol (Futbol Campo)"
    ]
}