{
    "municipalities": [
        {
            "model": "municipalities.municipalitymodel",
            "pk": 1,
            "fields": {
                "name": "Alto Orinoco",
                "state_id": 1
            }
        },
        {
            "model": "municipalities.municipalitymodel",
            "pk": 2,
            "fields": {
                "name": "Atabapo",
                "state_id": 1
            }
        },
        {
            "model": "municipalities.municipalitymodel",
            "pk": 3,
            "fields": {
                "name": "Atures",
                "state_id": 1
            }
        },
        {
            "model": "municipalities.municipalitymodel",
            "pk": 4,
            "fields": {
                "name": "Autana",
                "state_id": 1
            }
        },
        {
            "model": "municipalities.municipalitymodel",
            "pk": 5,
            "fields": {
                "name": "Manapiare",
                "state_id": 1
            }
        },
        {
            "model": "municipalities.municipalitymodel",
            "pk": 6,
            "fields": {
                "name": "Maroa",
                "state_id": 1
            }
        },
        {
            "model": "municipalities.municipalitymodel",
            "pk": 7,
            "fields": {
                "name": "Río Negro",
                "state_id": 1
            }
        },
        {
            "model": "municipalities.municipalitymodel",
            "pk": 8,
            "fields": {
                "name": "Anaco",
                "state_id": 2
            }
        },
        {
            "model": "municipalities.municipalitymodel",
            "pk": 9,
            "fields": {
                "name": "Aragua",
                "state_id": 2
            }
        },
        {
            "model": "municipalities.municipalitymodel",
            "pk": 10,
            "fields": {
                "name": "Manuel Ezequiel Bruzual",
                "state_id": 2
            }
        },
        {
            "model": "municipalities.municipalitymodel",
            "pk": 11,
            "fields": {
                "name": "Diego Bautista Urbaneja",
                "state_id": 2
            }
        },
        {
            "model": "municipalities.municipalitymodel",
            "pk": 12,
            "fields": {
                "name": "Fernando Peñalver",
                "state_id": 2
            }
        },
        {
            "model": "municipalities.municipalitymodel",
            "pk": 13,
            "fields": {
                "name": "Francisco Del Carmen Carvajal",
                "state_id": 2
            }
        },
        {
            "model": "municipalities.municipalitymodel",
            "pk": 14,
            "fields": {
                "name": "General Sir Arthur McGregor",
                "state_id": 2
            }
        },
        {
            "model": "municipalities.municipalitymodel",
            "pk": 15,
            "fields": {
                "name": "Guanta",
                "state_id": 2
            }
        },
        {
            "model": "municipalities.municipalitymodel",
            "pk": 16,
            "fields": {
                "name": "Independencia",
                "state_id": 2
            }
        },
        {
            "model": "municipalities.municipalitymodel",
            "pk": 17,
            "fields": {
                "name": "José Gregorio Monagas",
                "state_id": 2
            }
        },
        {
            "model": "municipalities.municipalitymodel",
            "pk": 18,
            "fields": {
                "name": "Juan Antonio Sotillo",
                "state_id": 2
            }
        },
        {
            "model": "municipalities.municipalitymodel",
            "pk": 19,
            "fields": {
                "name": "Juan Manuel Cajigal",
                "state_id": 2
            }
        },
        {
            "model": "municipalities.municipalitymodel",
            "pk": 20,
            "fields": {
                "name": "Libertad",
                "state_id": 2
            }
        },
        {
            "model": "municipalities.municipalitymodel",
            "pk": 21,
            "fields": {
                "name": "Francisco de Miranda",
                "state_id": 2
            }
        },
        {
            "model": "municipalities.municipalitymodel",
            "pk": 22,
            "fields": {
                "name": "Pedro María Freites",
                "state_id": 2
            }
        },
        {
            "model": "municipalities.municipalitymodel",
            "pk": 23,
            "fields": {
                "name": "Píritu",
                "state_id": 2
            }
        },
        {
            "model": "municipalities.municipalitymodel",
            "pk": 24,
            "fields": {
                "name": "San José de Guanipa",
                "state_id": 2
            }
        },
        {
            "model": "municipalities.municipalitymodel",
            "pk": 25,
            "fields": {
                "name": "San Juan de Capistrano",
                "state_id": 2
            }
        },
        {
            "model": "municipalities.municipalitymodel",
            "pk": 26,
            "fields": {
                "name": "Santa Ana",
                "state_id": 2
            }
        },
        {
            "model": "municipalities.municipalitymodel",
            "pk": 27,
            "fields": {
                "name": "Simón Bolívar",
                "state_id": 2
            }
        },
        {
            "model": "municipalities.municipalitymodel",
            "pk": 28,
            "fields": {
                "name": "Simón Rodríguez",
                "state_id": 2
            }
        },
        {
            "model": "municipalities.municipalitymodel",
            "pk": 29,
            "fields": {
                "name": "Achaguas",
                "state_id": 3
            }
        },
        {
            "model": "municipalities.municipalitymodel",
            "pk": 30,
            "fields": {
                "name": "Biruaca",
                "state_id": 3
            }
        },
        {
            "model": "municipalities.municipalitymodel",
            "pk": 31,
            "fields": {
                "name": "Muñóz",
                "state_id": 3
            }
        },
        {
            "model": "municipalities.municipalitymodel",
            "pk": 32,
            "fields": {
                "name": "Páez",
                "state_id": 3
            }
        },
        {
            "model": "municipalities.municipalitymodel",
            "pk": 33,
            "fields": {
                "name": "Pedro Camejo",
                "state_id": 3
            }
        },
        {
            "model": "municipalities.municipalitymodel",
            "pk": 34,
            "fields": {
                "name": "Rómulo Gallegos",
                "state_id": 3
            }
        },
        {
            "model": "municipalities.municipalitymodel",
            "pk": 35,
            "fields": {
                "name": "San Fernando",
                "state_id": 3
            }
        },
        {
            "model": "municipalities.municipalitymodel",
            "pk": 36,
            "fields": {
                "name": "Atanasio Girardot",
                "state_id": 4
            }
        },
        {
            "model": "municipalities.municipalitymodel",
            "pk": 37,
            "fields": {
                "name": "Bolívar",
                "state_id": 4
            }
        },
        {
            "model": "municipalities.municipalitymodel",
            "pk": 38,
            "fields": {
                "name": "Camatagua",
                "state_id": 4
            }
        },
        {
            "model": "municipalities.municipalitymodel",
            "pk": 39,
            "fields": {
                "name": "Francisco Linares Alcántara",
                "state_id": 4
            }
        },
        {
            "model": "municipalities.municipalitymodel",
            "pk": 40,
            "fields": {
                "name": "José Ángel Lamas",
                "state_id": 4
            }
        },
        {
            "model": "municipalities.municipalitymodel",
            "pk": 41,
            "fields": {
                "name": "José Félix Ribas",
                "state_id": 4
            }
        },
        {
            "model": "municipalities.municipalitymodel",
            "pk": 42,
            "fields": {
                "name": "José Rafael Revenga",
                "state_id": 4
            }
        },
        {
            "model": "municipalities.municipalitymodel",
            "pk": 43,
            "fields": {
                "name": "Libertador",
                "state_id": 4
            }
        },
        {
            "model": "municipalities.municipalitymodel",
            "pk": 44,
            "fields": {
                "name": "Mario Briceño Iragorry",
                "state_id": 4
            }
        },
        {
            "model": "municipalities.municipalitymodel",
            "pk": 45,
            "fields": {
                "name": "Ocumare de la Costa de Oro",
                "state_id": 4
            }
        },
        {
            "model": "municipalities.municipalitymodel",
            "pk": 46,
            "fields": {
                "name": "San Casimiro",
                "state_id": 4
            }
        },
        {
            "model": "municipalities.municipalitymodel",
            "pk": 47,
            "fields": {
                "name": "San Sebastián",
                "state_id": 4
            }
        },
        {
            "model": "municipalities.municipalitymodel",
            "pk": 48,
            "fields": {
                "name": "Santiago Mariño",
                "state_id": 4
            }
        },
        {
            "model": "municipalities.municipalitymodel",
            "pk": 49,
            "fields": {
                "name": "Santos Michelena",
                "state_id": 4
            }
        },
        {
            "model": "municipalities.municipalitymodel",
            "pk": 50,
            "fields": {
                "name": "Sucre",
                "state_id": 4
            }
        },
        {
            "model": "municipalities.municipalitymodel",
            "pk": 51,
            "fields": {
                "name": "Tovar",
                "state_id": 4
            }
        },
        {
            "model": "municipalities.municipalitymodel",
            "pk": 52,
            "fields": {
                "name": "Urdaneta",
                "state_id": 4
            }
        },
        {
            "model": "municipalities.municipalitymodel",
            "pk": 53,
            "fields": {
                "name": "Zamora",
                "state_id": 4
            }
        },
        {
            "model": "municipalities.municipalitymodel",
            "pk": 54,
            "fields": {
                "name": "Alberto Arvelo Torrealba",
                "state_id": 5
            }
        },
        {
            "model": "municipalities.municipalitymodel",
            "pk": 55,
            "fields": {
                "name": "Andrés Eloy Blanco",
                "state_id": 5
            }
        },
        {
            "model": "municipalities.municipalitymodel",
            "pk": 56,
            "fields": {
                "name": "Antonio José de Sucre",
                "state_id": 5
            }
        },
        {
            "model": "municipalities.municipalitymodel",
            "pk": 57,
            "fields": {
                "name": "Arismendi",
                "state_id": 5
            }
        },
        {
            "model": "municipalities.municipalitymodel",
            "pk": 58,
            "fields": {
                "name": "Barinas",
                "state_id": 5
            }
        },
        {
            "model": "municipalities.municipalitymodel",
            "pk": 59,
            "fields": {
                "name": "Bolívar",
                "state_id": 5
            }
        },
        {
            "model": "municipalities.municipalitymodel",
            "pk": 60,
            "fields": {
                "name": "Cruz Paredes",
                "state_id": 5
            }
        },
        {
            "model": "municipalities.municipalitymodel",
            "pk": 61,
            "fields": {
                "name": "Ezequiel Zamora",
                "state_id": 5
            }
        },
        {
            "model": "municipalities.municipalitymodel",
            "pk": 62,
            "fields": {
                "name": "Obispos",
                "state_id": 5
            }
        },
        {
            "model": "municipalities.municipalitymodel",
            "pk": 63,
            "fields": {
                "name": "Pedraza",
                "state_id": 5
            }
        },
        {
            "model": "municipalities.municipalitymodel",
            "pk": 64,
            "fields": {
                "name": "Rojas",
                "state_id": 5
            }
        },
        {
            "model": "municipalities.municipalitymodel",
            "pk": 65,
            "fields": {
                "name": "Sosa",
                "state_id": 5
            }
        },
        {
            "model": "municipalities.municipalitymodel",
            "pk": 66,
            "fields": {
                "name": "Caroní",
                "state_id": 6
            }
        },
        {
            "model": "municipalities.municipalitymodel",
            "pk": 67,
            "fields": {
                "name": "Cedeño",
                "state_id": 6
            }
        },
        {
            "model": "municipalities.municipalitymodel",
            "pk": 68,
            "fields": {
                "name": "El Callao",
                "state_id": 6
            }
        },
        {
            "model": "municipalities.municipalitymodel",
            "pk": 69,
            "fields": {
                "name": "Gran Sabana",
                "state_id": 6
            }
        },
        {
            "model": "municipalities.municipalitymodel",
            "pk": 70,
            "fields": {
                "name": "Heres",
                "state_id": 6
            }
        },
        {
            "model": "municipalities.municipalitymodel",
            "pk": 71,
            "fields": {
                "name": "Piar",
                "state_id": 6
            }
        },
        {
            "model": "municipalities.municipalitymodel",
            "pk": 72,
            "fields": {
                "name": "Angostura (Raúl Leoni)",
                "state_id": 6
            }
        },
        {
            "model": "municipalities.municipalitymodel",
            "pk": 73,
            "fields": {
                "name": "Roscio",
                "state_id": 6
            }
        },
        {
            "model": "municipalities.municipalitymodel",
            "pk": 74,
            "fields": {
                "name": "Sifontes",
                "state_id": 6
            }
        },
        {
            "model": "municipalities.municipalitymodel",
            "pk": 75,
            "fields": {
                "name": "Sucre",
                "state_id": 6
            }
        },
        {
            "model": "municipalities.municipalitymodel",
            "pk": 76,
            "fields": {
                "name": "Padre Pedro Chien",
                "state_id": 6
            }
        },
        {
            "model": "municipalities.municipalitymodel",
            "pk": 77,
            "fields": {
                "name": "Bejuma",
                "state_id": 7
            }
        },
        {
            "model": "municipalities.municipalitymodel",
            "pk": 78,
            "fields": {
                "name": "Carlos Arvelo",
                "state_id": 7
            }
        },
        {
            "model": "municipalities.municipalitymodel",
            "pk": 79,
            "fields": {
                "name": "Diego Ibarra",
                "state_id": 7
            }
        },
        {
            "model": "municipalities.municipalitymodel",
            "pk": 80,
            "fields": {
                "name": "Guacara",
                "state_id": 7
            }
        },
        {
            "model": "municipalities.municipalitymodel",
            "pk": 81,
            "fields": {
                "name": "Juan José Mora",
                "state_id": 7
            }
        },
        {
            "model": "municipalities.municipalitymodel",
            "pk": 82,
            "fields": {
                "name": "Libertador",
                "state_id": 7
            }
        },
        {
            "model": "municipalities.municipalitymodel",
            "pk": 83,
            "fields": {
                "name": "Los Guayos",
                "state_id": 7
            }
        },
        {
            "model": "municipalities.municipalitymodel",
            "pk": 84,
            "fields": {
                "name": "Miranda",
                "state_id": 7
            }
        },
        {
            "model": "municipalities.municipalitymodel",
            "pk": 85,
            "fields": {
                "name": "Montalbán",
                "state_id": 7
            }
        },
        {
            "model": "municipalities.municipalitymodel",
            "pk": 86,
            "fields": {
                "name": "Naguanagua",
                "state_id": 7
            }
        },
        {
            "model": "municipalities.municipalitymodel",
            "pk": 87,
            "fields": {
                "name": "Puerto Cabello",
                "state_id": 7
            }
        },
        {
            "model": "municipalities.municipalitymodel",
            "pk": 88,
            "fields": {
                "name": "San Diego",
                "state_id": 7
            }
        },
        {
            "model": "municipalities.municipalitymodel",
            "pk": 89,
            "fields": {
                "name": "San Joaquín",
                "state_id": 7
            }
        },
        {
            "model": "municipalities.municipalitymodel",
            "pk": 90,
            "fields": {
                "name": "Valencia",
                "state_id": 7
            }
        },
        {
            "model": "municipalities.municipalitymodel",
            "pk": 91,
            "fields": {
                "name": "Anzoátegui",
                "state_id": 8
            }
        },
        {
            "model": "municipalities.municipalitymodel",
            "pk": 92,
            "fields": {
                "name": "Tinaquillo",
                "state_id": 8
            }
        },
        {
            "model": "municipalities.municipalitymodel",
            "pk": 93,
            "fields": {
                "name": "Girardot",
                "state_id": 8
            }
        },
        {
            "model": "municipalities.municipalitymodel",
            "pk": 94,
            "fields": {
                "name": "Lima Blanco",
                "state_id": 8
            }
        },
        {
            "model": "municipalities.municipalitymodel",
            "pk": 95,
            "fields": {
                "name": "Pao de San Juan Bautista",
                "state_id": 8
            }
        },
        {
            "model": "municipalities.municipalitymodel",
            "pk": 96,
            "fields": {
                "name": "Ricaurte",
                "state_id": 8
            }
        },
        {
            "model": "municipalities.municipalitymodel",
            "pk": 97,
            "fields": {
                "name": "Rómulo Gallegos",
                "state_id": 8
            }
        },
        {
            "model": "municipalities.municipalitymodel",
            "pk": 98,
            "fields": {
                "name": "San Carlos",
                "state_id": 8
            }
        },
        {
            "model": "municipalities.municipalitymodel",
            "pk": 99,
            "fields": {
                "name": "Tinaco",
                "state_id": 8
            }
        },
        {
            "model": "municipalities.municipalitymodel",
            "pk": 100,
            "fields": {
                "name": "Antonio Díaz",
                "state_id": 9
            }
        },
        {
            "model": "municipalities.municipalitymodel",
            "pk": 101,
            "fields": {
                "name": "Casacoima",
                "state_id": 9
            }
        },
        {
            "model": "municipalities.municipalitymodel",
            "pk": 102,
            "fields": {
                "name": "Pedernales",
                "state_id": 9
            }
        },
        {
            "model": "municipalities.municipalitymodel",
            "pk": 103,
            "fields": {
                "name": "Tucupita",
                "state_id": 9
            }
        },
        {
            "model": "municipalities.municipalitymodel",
            "pk": 104,
            "fields": {
                "name": "Acosta",
                "state_id": 10
            }
        },
        {
            "model": "municipalities.municipalitymodel",
            "pk": 105,
            "fields": {
                "name": "Bolívar",
                "state_id": 10
            }
        },
        {
            "model": "municipalities.municipalitymodel",
            "pk": 106,
            "fields": {
                "name": "Buchivacoa",
                "state_id": 10
            }
        },
        {
            "model": "municipalities.municipalitymodel",
            "pk": 107,
            "fields": {
                "name": "Cacique Manaure",
                "state_id": 10
            }
        },
        {
            "model": "municipalities.municipalitymodel",
            "pk": 108,
            "fields": {
                "name": "Carirubana",
                "state_id": 10
            }
        },
        {
            "model": "municipalities.municipalitymodel",
            "pk": 109,
            "fields": {
                "name": "Colina",
                "state_id": 10
            }
        },
        {
            "model": "municipalities.municipalitymodel",
            "pk": 110,
            "fields": {
                "name": "Dabajuro",
                "state_id": 10
            }
        },
        {
            "model": "municipalities.municipalitymodel",
            "pk": 111,
            "fields": {
                "name": "Democracia",
                "state_id": 10
            }
        },
        {
            "model": "municipalities.municipalitymodel",
            "pk": 112,
            "fields": {
                "name": "Falcón",
                "state_id": 10
            }
        },
        {
            "model": "municipalities.municipalitymodel",
            "pk": 113,
            "fields": {
                "name": "Federación",
                "state_id": 10
            }
        },
        {
            "model": "municipalities.municipalitymodel",
            "pk": 114,
            "fields": {
                "name": "Jacura",
                "state_id": 10
            }
        },
        {
            "model": "municipalities.municipalitymodel",
            "pk": 115,
            "fields": {
                "name": "José Laurencio Silva",
                "state_id": 10
            }
        },
        {
            "model": "municipalities.municipalitymodel",
            "pk": 116,
            "fields": {
                "name": "Los Taques",
                "state_id": 10
            }
        },
        {
            "model": "municipalities.municipalitymodel",
            "pk": 117,
            "fields": {
                "name": "Mauroa",
                "state_id": 10
            }
        },
        {
            "model": "municipalities.municipalitymodel",
            "pk": 118,
            "fields": {
                "name": "Miranda",
                "state_id": 10
            }
        },
        {
            "model": "municipalities.municipalitymodel",
            "pk": 119,
            "fields": {
                "name": "Monseñor Iturriza",
                "state_id": 10
            }
        },
        {
            "model": "municipalities.municipalitymodel",
            "pk": 120,
            "fields": {
                "name": "Palmasola",
                "state_id": 10
            }
        },
        {
            "model": "municipalities.municipalitymodel",
            "pk": 121,
            "fields": {
                "name": "Petit",
                "state_id": 10
            }
        },
        {
            "model": "municipalities.municipalitymodel",
            "pk": 122,
            "fields": {
                "name": "Píritu",
                "state_id": 10
            }
        },
        {
            "model": "municipalities.municipalitymodel",
            "pk": 123,
            "fields": {
                "name": "San Francisco",
                "state_id": 10
            }
        },
        {
            "model": "municipalities.municipalitymodel",
            "pk": 124,
            "fields": {
                "name": "Sucre",
                "state_id": 10
            }
        },
        {
            "model": "municipalities.municipalitymodel",
            "pk": 125,
            "fields": {
                "name": "Tocópero",
                "state_id": 10
            }
        },
        {
            "model": "municipalities.municipalitymodel",
            "pk": 126,
            "fields": {
                "name": "Unión",
                "state_id": 10
            }
        },
        {
            "model": "municipalities.municipalitymodel",
            "pk": 127,
            "fields": {
                "name": "Urumaco",
                "state_id": 10
            }
        },
        {
            "model": "municipalities.municipalitymodel",
            "pk": 128,
            "fields": {
                "name": "Zamora",
                "state_id": 10
            }
        },
        {
            "model": "municipalities.municipalitymodel",
            "pk": 129,
            "fields": {
                "name": "Camaguán",
                "state_id": 11
            }
        },
        {
            "model": "municipalities.municipalitymodel",
            "pk": 130,
            "fields": {
                "name": "Chaguaramas",
                "state_id": 11
            }
        },
        {
            "model": "municipalities.municipalitymodel",
            "pk": 131,
            "fields": {
                "name": "El Socorro",
                "state_id": 11
            }
        },
        {
            "model": "municipalities.municipalitymodel",
            "pk": 132,
            "fields": {
                "name": "José Félix Ribas",
                "state_id": 11
            }
        },
        {
            "model": "municipalities.municipalitymodel",
            "pk": 133,
            "fields": {
                "name": "José Tadeo Monagas",
                "state_id": 11
            }
        },
        {
            "model": "municipalities.municipalitymodel",
            "pk": 134,
            "fields": {
                "name": "Juan Germán Roscio",
                "state_id": 11
            }
        },
        {
            "model": "municipalities.municipalitymodel",
            "pk": 135,
            "fields": {
                "name": "Julián Mellado",
                "state_id": 11
            }
        },
        {
            "model": "municipalities.municipalitymodel",
            "pk": 136,
            "fields": {
                "name": "Las Mercedes",
                "state_id": 11
            }
        },
        {
            "model": "municipalities.municipalitymodel",
            "pk": 137,
            "fields": {
                "name": "Leonardo Infante",
                "state_id": 11
            }
        },
        {
            "model": "municipalities.municipalitymodel",
            "pk": 138,
            "fields": {
                "name": "Pedro Zaraza",
                "state_id": 11
            }
        },
        {
            "model": "municipalities.municipalitymodel",
            "pk": 139,
            "fields": {
                "name": "Ortíz",
                "state_id": 11
            }
        },
        {
            "model": "municipalities.municipalitymodel",
            "pk": 140,
            "fields": {
                "name": "San Gerónimo de Guayabal",
                "state_id": 11
            }
        },
        {
            "model": "municipalities.municipalitymodel",
            "pk": 141,
            "fields": {
                "name": "San José de Guaribe",
                "state_id": 11
            }
        },
        {
            "model": "municipalities.municipalitymodel",
            "pk": 142,
            "fields": {
                "name": "Santa María de Ipire",
                "state_id": 11
            }
        },
        {
            "model": "municipalities.municipalitymodel",
            "pk": 143,
            "fields": {
                "name": "Sebastián Francisco de Miranda",
                "state_id": 11
            }
        },
        {
            "model": "municipalities.municipalitymodel",
            "pk": 144,
            "fields": {
                "name": "Andrés Eloy Blanco",
                "state_id": 12
            }
        },
        {
            "model": "municipalities.municipalitymodel",
            "pk": 145,
            "fields": {
                "name": "Crespo",
                "state_id": 12
            }
        },
        {
            "model": "municipalities.municipalitymodel",
            "pk": 146,
            "fields": {
                "name": "Iribarren",
                "state_id": 12
            }
        },
        {
            "model": "municipalities.municipalitymodel",
            "pk": 147,
            "fields": {
                "name": "Jiménez",
                "state_id": 12
            }
        },
        {
            "model": "municipalities.municipalitymodel",
            "pk": 148,
            "fields": {
                "name": "Morán",
                "state_id": 12
            }
        },
        {
            "model": "municipalities.municipalitymodel",
            "pk": 149,
            "fields": {
                "name": "Palavecino",
                "state_id": 12
            }
        },
        {
            "model": "municipalities.municipalitymodel",
            "pk": 150,
            "fields": {
                "name": "Simón Planas",
                "state_id": 12
            }
        },
        {
            "model": "municipalities.municipalitymodel",
            "pk": 151,
            "fields": {
                "name": "Torres",
                "state_id": 12
            }
        },
        {
            "model": "municipalities.municipalitymodel",
            "pk": 152,
            "fields": {
                "name": "Urdaneta",
                "state_id": 12
            }
        },
        {
            "model": "municipalities.municipalitymodel",
            "pk": 179,
            "fields": {
                "name": "Alberto Adriani",
                "state_id": 13
            }
        },
        {
            "model": "municipalities.municipalitymodel",
            "pk": 180,
            "fields": {
                "name": "Andrés Bello",
                "state_id": 13
            }
        },
        {
            "model": "municipalities.municipalitymodel",
            "pk": 181,
            "fields": {
                "name": "Antonio Pinto Salinas",
                "state_id": 13
            }
        },
        {
            "model": "municipalities.municipalitymodel",
            "pk": 182,
            "fields": {
                "name": "Aricagua",
                "state_id": 13
            }
        },
        {
            "model": "municipalities.municipalitymodel",
            "pk": 183,
            "fields": {
                "name": "Arzobispo Chacón",
                "state_id": 13
            }
        },
        {
            "model": "municipalities.municipalitymodel",
            "pk": 184,
            "fields": {
                "name": "Campo Elías",
                "state_id": 13
            }
        },
        {
            "model": "municipalities.municipalitymodel",
            "pk": 185,
            "fields": {
                "name": "Caracciolo Parra Olmedo",
                "state_id": 13
            }
        },
        {
            "model": "municipalities.municipalitymodel",
            "pk": 186,
            "fields": {
                "name": "Cardenal Quintero",
                "state_id": 13
            }
        },
        {
            "model": "municipalities.municipalitymodel",
            "pk": 187,
            "fields": {
                "name": "Guaraque",
                "state_id": 13
            }
        },
        {
            "model": "municipalities.municipalitymodel",
            "pk": 188,
            "fields": {
                "name": "Julio César Salas",
                "state_id": 13
            }
        },
        {
            "model": "municipalities.municipalitymodel",
            "pk": 189,
            "fields": {
                "name": "Justo Briceño",
                "state_id": 13
            }
        },
        {
            "model": "municipalities.municipalitymodel",
            "pk": 190,
            "fields": {
                "name": "Libertador",
                "state_id": 13
            }
        },
        {
            "model": "municipalities.municipalitymodel",
            "pk": 191,
            "fields": {
                "name": "Miranda",
                "state_id": 13
            }
        },
        {
            "model": "municipalities.municipalitymodel",
            "pk": 192,
            "fields": {
                "name": "Obispo Ramos de Lora",
                "state_id": 13
            }
        },
        {
            "model": "municipalities.municipalitymodel",
            "pk": 193,
            "fields": {
                "name": "Padre Noguera",
                "state_id": 13
            }
        },
        {
            "model": "municipalities.municipalitymodel",
            "pk": 194,
            "fields": {
                "name": "Pueblo Llano",
                "state_id": 13
            }
        },
        {
            "model": "municipalities.municipalitymodel",
            "pk": 195,
            "fields": {
                "name": "Rangel",
                "state_id": 13
            }
        },
        {
            "model": "municipalities.municipalitymodel",
            "pk": 196,
            "fields": {
                "name": "Rivas Dávila",
                "state_id": 13
            }
        },
        {
            "model": "municipalities.municipalitymodel",
            "pk": 197,
            "fields": {
                "name": "Santos Marquina",
                "state_id": 13
            }
        },
        {
            "model": "municipalities.municipalitymodel",
            "pk": 198,
            "fields": {
                "name": "Sucre",
                "state_id": 13
            }
        },
        {
            "model": "municipalities.municipalitymodel",
            "pk": 199,
            "fields": {
                "name": "Tovar",
                "state_id": 13
            }
        },
        {
            "model": "municipalities.municipalitymodel",
            "pk": 200,
            "fields": {
                "name": "Tulio Febres Cordero",
                "state_id": 13
            }
        },
        {
            "model": "municipalities.municipalitymodel",
            "pk": 201,
            "fields": {
                "name": "Zea",
                "state_id": 13
            }
        },
        {
            "model": "municipalities.municipalitymodel",
            "pk": 223,
            "fields": {
                "name": "Acevedo",
                "state_id": 14
            }
        },
        {
            "model": "municipalities.municipalitymodel",
            "pk": 224,
            "fields": {
                "name": "Andrés Bello",
                "state_id": 14
            }
        },
        {
            "model": "municipalities.municipalitymodel",
            "pk": 225,
            "fields": {
                "name": "Baruta",
                "state_id": 14
            }
        },
        {
            "model": "municipalities.municipalitymodel",
            "pk": 226,
            "fields": {
                "name": "Brión",
                "state_id": 14
            }
        },
        {
            "model": "municipalities.municipalitymodel",
            "pk": 227,
            "fields": {
                "name": "Buroz",
                "state_id": 14
            }
        },
        {
            "model": "municipalities.municipalitymodel",
            "pk": 228,
            "fields": {
                "name": "Carrizal",
                "state_id": 14
            }
        },
        {
            "model": "municipalities.municipalitymodel",
            "pk": 229,
            "fields": {
                "name": "Chacao",
                "state_id": 14
            }
        },
        {
            "model": "municipalities.municipalitymodel",
            "pk": 230,
            "fields": {
                "name": "Cristóbal Rojas",
                "state_id": 14
            }
        },
        {
            "model": "municipalities.municipalitymodel",
            "pk": 231,
            "fields": {
                "name": "El Hatillo",
                "state_id": 14
            }
        },
        {
            "model": "municipalities.municipalitymodel",
            "pk": 232,
            "fields": {
                "name": "Guaicaipuro",
                "state_id": 14
            }
        },
        {
            "model": "municipalities.municipalitymodel",
            "pk": 233,
            "fields": {
                "name": "Independencia",
                "state_id": 14
            }
        },
        {
            "model": "municipalities.municipalitymodel",
            "pk": 234,
            "fields": {
                "name": "Lander",
                "state_id": 14
            }
        },
        {
            "model": "municipalities.municipalitymodel",
            "pk": 235,
            "fields": {
                "name": "Los Salias",
                "state_id": 14
            }
        },
        {
            "model": "municipalities.municipalitymodel",
            "pk": 236,
            "fields": {
                "name": "Páez",
                "state_id": 14
            }
        },
        {
            "model": "municipalities.municipalitymodel",
            "pk": 237,
            "fields": {
                "name": "Paz Castillo",
                "state_id": 14
            }
        },
        {
            "model": "municipalities.municipalitymodel",
            "pk": 238,
            "fields": {
                "name": "Pedro Gual",
                "state_id": 14
            }
        },
        {
            "model": "municipalities.municipalitymodel",
            "pk": 239,
            "fields": {
                "name": "Plaza",
                "state_id": 14
            }
        },
        {
            "model": "municipalities.municipalitymodel",
            "pk": 240,
            "fields": {
                "name": "Simón Bolívar",
                "state_id": 14
            }
        },
        {
            "model": "municipalities.municipalitymodel",
            "pk": 241,
            "fields": {
                "name": "Sucre",
                "state_id": 14
            }
        },
        {
            "model": "municipalities.municipalitymodel",
            "pk": 242,
            "fields": {
                "name": "Urdaneta",
                "state_id": 14
            }
        },
        {
            "model": "municipalities.municipalitymodel",
            "pk": 243,
            "fields": {
                "name": "Zamora",
                "state_id": 14
            }
        },
        {
            "model": "municipalities.municipalitymodel",
            "pk": 258,
            "fields": {
                "name": "Acosta",
                "state_id": 15
            }
        },
        {
            "model": "municipalities.municipalitymodel",
            "pk": 259,
            "fields": {
                "name": "Aguasay",
                "state_id": 15
            }
        },
        {
            "model": "municipalities.municipalitymodel",
            "pk": 260,
            "fields": {
                "name": "Bolívar",
                "state_id": 15
            }
        },
        {
            "model": "municipalities.municipalitymodel",
            "pk": 261,
            "fields": {
                "name": "Caripe",
                "state_id": 15
            }
        },
        {
            "model": "municipalities.municipalitymodel",
            "pk": 262,
            "fields": {
                "name": "Cedeño",
                "state_id": 15
            }
        },
        {
            "model": "municipalities.municipalitymodel",
            "pk": 263,
            "fields": {
                "name": "Ezequiel Zamora",
                "state_id": 15
            }
        },
        {
            "model": "municipalities.municipalitymodel",
            "pk": 264,
            "fields": {
                "name": "Libertador",
                "state_id": 15
            }
        },
        {
            "model": "municipalities.municipalitymodel",
            "pk": 265,
            "fields": {
                "name": "Maturín",
                "state_id": 15
            }
        },
        {
            "model": "municipalities.municipalitymodel",
            "pk": 266,
            "fields": {
                "name": "Piar",
                "state_id": 15
            }
        },
        {
            "model": "municipalities.municipalitymodel",
            "pk": 267,
            "fields": {
                "name": "Punceres",
                "state_id": 15
            }
        },
        {
            "model": "municipalities.municipalitymodel",
            "pk": 268,
            "fields": {
                "name": "Santa Bárbara",
                "state_id": 15
            }
        },
        {
            "model": "municipalities.municipalitymodel",
            "pk": 269,
            "fields": {
                "name": "Sotillo",
                "state_id": 15
            }
        },
        {
            "model": "municipalities.municipalitymodel",
            "pk": 270,
            "fields": {
                "name": "Uracoa",
                "state_id": 15
            }
        },
        {
            "model": "municipalities.municipalitymodel",
            "pk": 271,
            "fields": {
                "name": "Antolín del Campo",
                "state_id": 16
            }
        },
        {
            "model": "municipalities.municipalitymodel",
            "pk": 272,
            "fields": {
                "name": "Arismendi",
                "state_id": 16
            }
        },
        {
            "model": "municipalities.municipalitymodel",
            "pk": 273,
            "fields": {
                "name": "García",
                "state_id": 16
            }
        },
        {
            "model": "municipalities.municipalitymodel",
            "pk": 274,
            "fields": {
                "name": "Gómez",
                "state_id": 16
            }
        },
        {
            "model": "municipalities.municipalitymodel",
            "pk": 275,
            "fields": {
                "name": "Maneiro",
                "state_id": 16
            }
        },
        {
            "model": "municipalities.municipalitymodel",
            "pk": 276,
            "fields": {
                "name": "Marcano",
                "state_id": 16
            }
        },
        {
            "model": "municipalities.municipalitymodel",
            "pk": 277,
            "fields": {
                "name": "Mariño",
                "state_id": 16
            }
        },
        {
            "model": "municipalities.municipalitymodel",
            "pk": 278,
            "fields": {
                "name": "Península de Macanao",
                "state_id": 16
            }
        },
        {
            "model": "municipalities.municipalitymodel",
            "pk": 279,
            "fields": {
                "name": "Tubores",
                "state_id": 16
            }
        },
        {
            "model": "municipalities.municipalitymodel",
            "pk": 280,
            "fields": {
                "name": "Villalba",
                "state_id": 16
            }
        },
        {
            "model": "municipalities.municipalitymodel",
            "pk": 281,
            "fields": {
                "name": "Díaz",
                "state_id": 16
            }
        },
        {
            "model": "municipalities.municipalitymodel",
            "pk": 282,
            "fields": {
                "name": "Agua Blanca",
                "state_id": 17
            }
        },
        {
            "model": "municipalities.municipalitymodel",
            "pk": 283,
            "fields": {
                "name": "Araure",
                "state_id": 17
            }
        },
        {
            "model": "municipalities.municipalitymodel",
            "pk": 284,
            "fields": {
                "name": "Esteller",
                "state_id": 17
            }
        },
        {
            "model": "municipalities.municipalitymodel",
            "pk": 285,
            "fields": {
                "name": "Guanare",
                "state_id": 17
            }
        },
        {
            "model": "municipalities.municipalitymodel",
            "pk": 286,
            "fields": {
                "name": "Guanarito",
                "state_id": 17
            }
        },
        {
            "model": "municipalities.municipalitymodel",
            "pk": 287,
            "fields": {
                "name": "Monseñor José Vicente de Unda",
                "state_id": 17
            }
        },
        {
            "model": "municipalities.municipalitymodel",
            "pk": 288,
            "fields": {
                "name": "Ospino",
                "state_id": 17
            }
        },
        {
            "model": "municipalities.municipalitymodel",
            "pk": 289,
            "fields": {
                "name": "Páez",
                "state_id": 17
            }
        },
        {
            "model": "municipalities.municipalitymodel",
            "pk": 290,
            "fields": {
                "name": "Papelón",
                "state_id": 17
            }
        },
        {
            "model": "municipalities.municipalitymodel",
            "pk": 291,
            "fields": {
                "name": "San Genaro de Boconoíto",
                "state_id": 17
            }
        },
        {
            "model": "municipalities.municipalitymodel",
            "pk": 292,
            "fields": {
                "name": "San Rafael de Onoto",
                "state_id": 17
            }
        },
        {
            "model": "municipalities.municipalitymodel",
            "pk": 293,
            "fields": {
                "name": "Santa Rosalía",
                "state_id": 17
            }
        },
        {
            "model": "municipalities.municipalitymodel",
            "pk": 294,
            "fields": {
                "name": "Sucre",
                "state_id": 17
            }
        },
        {
            "model": "municipalities.municipalitymodel",
            "pk": 295,
            "fields": {
                "name": "Turén",
                "state_id": 17
            }
        },
        {
            "model": "municipalities.municipalitymodel",
            "pk": 296,
            "fields": {
                "name": "Andrés Eloy Blanco",
                "state_id": 18
            }
        },
        {
            "model": "municipalities.municipalitymodel",
            "pk": 297,
            "fields": {
                "name": "Andrés Mata",
                "state_id": 18
            }
        },
        {
            "model": "municipalities.municipalitymodel",
            "pk": 298,
            "fields": {
                "name": "Arismendi",
                "state_id": 18
            }
        },
        {
            "model": "municipalities.municipalitymodel",
            "pk": 299,
            "fields": {
                "name": "Benítez",
                "state_id": 18
            }
        },
        {
            "model": "municipalities.municipalitymodel",
            "pk": 300,
            "fields": {
                "name": "Bermúdez",
                "state_id": 18
            }
        },
        {
            "model": "municipalities.municipalitymodel",
            "pk": 301,
            "fields": {
                "name": "Bolívar",
                "state_id": 18
            }
        },
        {
            "model": "municipalities.municipalitymodel",
            "pk": 302,
            "fields": {
                "name": "Cajigal",
                "state_id": 18
            }
        },
        {
            "model": "municipalities.municipalitymodel",
            "pk": 303,
            "fields": {
                "name": "Cruz Salmerón Acosta",
                "state_id": 18
            }
        },
        {
            "model": "municipalities.municipalitymodel",
            "pk": 304,
            "fields": {
                "name": "Libertador",
                "state_id": 18
            }
        },
        {
            "model": "municipalities.municipalitymodel",
            "pk": 305,
            "fields": {
                "name": "Mariño",
                "state_id": 18
            }
        },
        {
            "model": "municipalities.municipalitymodel",
            "pk": 306,
            "fields": {
                "name": "Mejía",
                "state_id": 18
            }
        },
        {
            "model": "municipalities.municipalitymodel",
            "pk": 307,
            "fields": {
                "name": "Montes",
                "state_id": 18
            }
        },
        {
            "model": "municipalities.municipalitymodel",
            "pk": 308,
            "fields": {
                "name": "Ribero",
                "state_id": 18
            }
        },
        {
            "model": "municipalities.municipalitymodel",
            "pk": 309,
            "fields": {
                "name": "Sucre",
                "state_id": 18
            }
        },
        {
            "model": "municipalities.municipalitymodel",
            "pk": 310,
            "fields": {
                "name": "Valdéz",
                "state_id": 18
            }
        },
        {
            "model": "municipalities.municipalitymodel",
            "pk": 341,
            "fields": {
                "name": "Andrés Bello",
                "state_id": 19
            }
        },
        {
            "model": "municipalities.municipalitymodel",
            "pk": 342,
            "fields": {
                "name": "Antonio Rómulo Costa",
                "state_id": 19
            }
        },
        {
            "model": "municipalities.municipalitymodel",
            "pk": 343,
            "fields": {
                "name": "Ayacucho",
                "state_id": 19
            }
        },
        {
            "model": "municipalities.municipalitymodel",
            "pk": 344,
            "fields": {
                "name": "Bolívar",
                "state_id": 19
            }
        },
        {
            "model": "municipalities.municipalitymodel",
            "pk": 345,
            "fields": {
                "name": "Cárdenas",
                "state_id": 19
            }
        },
        {
            "model": "municipalities.municipalitymodel",
            "pk": 346,
            "fields": {
                "name": "Córdoba",
                "state_id": 19
            }
        },
        {
            "model": "municipalities.municipalitymodel",
            "pk": 347,
            "fields": {
                "name": "Fernández Feo",
                "state_id": 19
            }
        },
        {
            "model": "municipalities.municipalitymodel",
            "pk": 348,
            "fields": {
                "name": "Francisco de Miranda",
                "state_id": 19
            }
        },
        {
            "model": "municipalities.municipalitymodel",
            "pk": 349,
            "fields": {
                "name": "García de Hevia",
                "state_id": 19
            }
        },
        {
            "model": "municipalities.municipalitymodel",
            "pk": 350,
            "fields": {
                "name": "Guásimos",
                "state_id": 19
            }
        },
        {
            "model": "municipalities.municipalitymodel",
            "pk": 351,
            "fields": {
                "name": "Independencia",
                "state_id": 19
            }
        },
        {
            "model": "municipalities.municipalitymodel",
            "pk": 352,
            "fields": {
                "name": "Jáuregui",
                "state_id": 19
            }
        },
        {
            "model": "municipalities.municipalitymodel",
            "pk": 353,
            "fields": {
                "name": "José María Vargas",
                "state_id": 19
            }
        },
        {
            "model": "municipalities.municipalitymodel",
            "pk": 354,
            "fields": {
                "name": "Junín",
                "state_id": 19
            }
        },
        {
            "model": "municipalities.municipalitymodel",
            "pk": 355,
            "fields": {
                "name": "Libertad",
                "state_id": 19
            }
        },
        {
            "model": "municipalities.municipalitymodel",
            "pk": 356,
            "fields": {
                "name": "Libertador",
                "state_id": 19
            }
        },
        {
            "model": "municipalities.municipalitymodel",
            "pk": 357,
            "fields": {
                "name": "Lobatera",
                "state_id": 19
            }
        },
        {
            "model": "municipalities.municipalitymodel",
            "pk": 358,
            "fields": {
                "name": "Michelena",
                "state_id": 19
            }
        },
        {
            "model": "municipalities.municipalitymodel",
            "pk": 359,
            "fields": {
                "name": "Panamericano",
                "state_id": 19
            }
        },
        {
            "model": "municipalities.municipalitymodel",
            "pk": 360,
            "fields": {
                "name": "Pedro María Ureña",
                "state_id": 19
            }
        },
        {
            "model": "municipalities.municipalitymodel",
            "pk": 361,
            "fields": {
                "name": "Rafael Urdaneta",
                "state_id": 19
            }
        },
        {
            "model": "municipalities.municipalitymodel",
            "pk": 362,
            "fields": {
                "name": "Samuel Darío Maldonado",
                "state_id": 19
            }
        },
        {
            "model": "municipalities.municipalitymodel",
            "pk": 363,
            "fields": {
                "name": "San Cristóbal",
                "state_id": 19
            }
        },
        {
            "model": "municipalities.municipalitymodel",
            "pk": 364,
            "fields": {
                "name": "Seboruco",
                "state_id": 19
            }
        },
        {
            "model": "municipalities.municipalitymodel",
            "pk": 365,
            "fields": {
                "name": "Simón Rodríguez",
                "state_id": 19
            }
        },
        {
            "model": "municipalities.municipalitymodel",
            "pk": 366,
            "fields": {
                "name": "Sucre",
                "state_id": 19
            }
        },
        {
            "model": "municipalities.municipalitymodel",
            "pk": 367,
            "fields": {
                "name": "Torbes",
                "state_id": 19
            }
        },
        {
            "model": "municipalities.municipalitymodel",
            "pk": 368,
            "fields": {
                "name": "Uribante",
                "state_id": 19
            }
        },
        {
            "model": "municipalities.municipalitymodel",
            "pk": 369,
            "fields": {
                "name": "San Judas Tadeo",
                "state_id": 19
            }
        },
        {
            "model": "municipalities.municipalitymodel",
            "pk": 370,
            "fields": {
                "name": "Andrés Bello",
                "state_id": 20
            }
        },
        {
            "model": "municipalities.municipalitymodel",
            "pk": 371,
            "fields": {
                "name": "Boconó",
                "state_id": 20
            }
        },
        {
            "model": "municipalities.municipalitymodel",
            "pk": 372,
            "fields": {
                "name": "Bolívar",
                "state_id": 20
            }
        },
        {
            "model": "municipalities.municipalitymodel",
            "pk": 373,
            "fields": {
                "name": "Candelaria",
                "state_id": 20
            }
        },
        {
            "model": "municipalities.municipalitymodel",
            "pk": 374,
            "fields": {
                "name": "Carache",
                "state_id": 20
            }
        },
        {
            "model": "municipalities.municipalitymodel",
            "pk": 375,
            "fields": {
                "name": "Escuque",
                "state_id": 20
            }
        },
        {
            "model": "municipalities.municipalitymodel",
            "pk": 376,
            "fields": {
                "name": "José Felipe Márquez Cañizalez",
                "state_id": 20
            }
        },
        {
            "model": "municipalities.municipalitymodel",
            "pk": 377,
            "fields": {
                "name": "Juan Vicente Campos Elías",
                "state_id": 20
            }
        },
        {
            "model": "municipalities.municipalitymodel",
            "pk": 378,
            "fields": {
                "name": "La Ceiba",
                "state_id": 20
            }
        },
        {
            "model": "municipalities.municipalitymodel",
            "pk": 379,
            "fields": {
                "name": "Miranda",
                "state_id": 20
            }
        },
        {
            "model": "municipalities.municipalitymodel",
            "pk": 380,
            "fields": {
                "name": "Monte Carmelo",
                "state_id": 20
            }
        },
        {
            "model": "municipalities.municipalitymodel",
            "pk": 381,
            "fields": {
                "name": "Motatán",
                "state_id": 20
            }
        },
        {
            "model": "municipalities.municipalitymodel",
            "pk": 382,
            "fields": {
                "name": "Pampán",
                "state_id": 20
            }
        },
        {
            "model": "municipalities.municipalitymodel",
            "pk": 383,
            "fields": {
                "name": "Pampanito",
                "state_id": 20
            }
        },
        {
            "model": "municipalities.municipalitymodel",
            "pk": 384,
            "fields": {
                "name": "Rafael Rangel",
                "state_id": 20
            }
        },
        {
            "model": "municipalities.municipalitymodel",
            "pk": 385,
            "fields": {
                "name": "San Rafael de Carvajal",
                "state_id": 20
            }
        },
        {
            "model": "municipalities.municipalitymodel",
            "pk": 386,
            "fields": {
                "name": "Sucre",
                "state_id": 20
            }
        },
        {
            "model": "municipalities.municipalitymodel",
            "pk": 387,
            "fields": {
                "name": "Trujillo",
                "state_id": 20
            }
        },
        {
            "model": "municipalities.municipalitymodel",
            "pk": 388,
            "fields": {
                "name": "Urdaneta",
                "state_id": 20
            }
        },
        {
            "model": "municipalities.municipalitymodel",
            "pk": 389,
            "fields": {
                "name": "Valera",
                "state_id": 20
            }
        },
        {
            "model": "municipalities.municipalitymodel",
            "pk": 390,
            "fields": {
                "name": "Vargas",
                "state_id": 21
            }
        },
        {
            "model": "municipalities.municipalitymodel",
            "pk": 391,
            "fields": {
                "name": "Arístides Bastidas",
                "state_id": 22
            }
        },
        {
            "model": "municipalities.municipalitymodel",
            "pk": 392,
            "fields": {
                "name": "Bolívar",
                "state_id": 22
            }
        },
        {
            "model": "municipalities.municipalitymodel",
            "pk": 407,
            "fields": {
                "name": "Bruzual",
                "state_id": 22
            }
        },
        {
            "model": "municipalities.municipalitymodel",
            "pk": 408,
            "fields": {
                "name": "Cocorote",
                "state_id": 22
            }
        },
        {
            "model": "municipalities.municipalitymodel",
            "pk": 409,
            "fields": {
                "name": "Independencia",
                "state_id": 22
            }
        },
        {
            "model": "municipalities.municipalitymodel",
            "pk": 410,
            "fields": {
                "name": "José Antonio Páez",
                "state_id": 22
            }
        },
        {
            "model": "municipalities.municipalitymodel",
            "pk": 411,
            "fields": {
                "name": "La Trinidad",
                "state_id": 22
            }
        },
        {
            "model": "municipalities.municipalitymodel",
            "pk": 412,
            "fields": {
                "name": "Manuel Monge",
                "state_id": 22
            }
        },
        {
            "model": "municipalities.municipalitymodel",
            "pk": 413,
            "fields": {
                "name": "Nirgua",
                "state_id": 22
            }
        },
        {
            "model": "municipalities.municipalitymodel",
            "pk": 414,
            "fields": {
                "name": "Peña",
                "state_id": 22
            }
        },
        {
            "model": "municipalities.municipalitymodel",
            "pk": 415,
            "fields": {
                "name": "San Felipe",
                "state_id": 22
            }
        },
        {
            "model": "municipalities.municipalitymodel",
            "pk": 416,
            "fields": {
                "name": "Sucre",
                "state_id": 22
            }
        },
        {
            "model": "municipalities.municipalitymodel",
            "pk": 417,
            "fields": {
                "name": "Urachiche",
                "state_id": 22
            }
        },
        {
            "model": "municipalities.municipalitymodel",
            "pk": 418,
            "fields": {
                "name": "José Joaquín Veroes",
                "state_id": 22
            }
        },
        {
            "model": "municipalities.municipalitymodel",
            "pk": 441,
            "fields": {
                "name": "Almirante Padilla",
                "state_id": 23
            }
        },
        {
            "model": "municipalities.municipalitymodel",
            "pk": 442,
            "fields": {
                "name": "Baralt",
                "state_id": 23
            }
        },
        {
            "model": "municipalities.municipalitymodel",
            "pk": 443,
            "fields": {
                "name": "Cabimas",
                "state_id": 23
            }
        },
        {
            "model": "municipalities.municipalitymodel",
            "pk": 444,
            "fields": {
                "name": "Catatumbo",
                "state_id": 23
            }
        },
        {
            "model": "municipalities.municipalitymodel",
            "pk": 445,
            "fields": {
                "name": "Colón",
                "state_id": 23
            }
        },
        {
            "model": "municipalities.municipalitymodel",
            "pk": 446,
            "fields": {
                "name": "Francisco Javier Pulgar",
                "state_id": 23
            }
        },
        {
            "model": "municipalities.municipalitymodel",
            "pk": 447,
            "fields": {
                "name": "Páez",
                "state_id": 23
            }
        },
        {
            "model": "municipalities.municipalitymodel",
            "pk": 448,
            "fields": {
                "name": "Jesús Enrique Losada",
                "state_id": 23
            }
        },
        {
            "model": "municipalities.municipalitymodel",
            "pk": 449,
            "fields": {
                "name": "Jesús María Semprún",
                "state_id": 23
            }
        },
        {
            "model": "municipalities.municipalitymodel",
            "pk": 450,
            "fields": {
                "name": "La Cañada de Urdaneta",
                "state_id": 23
            }
        },
        {
            "model": "municipalities.municipalitymodel",
            "pk": 451,
            "fields": {
                "name": "Lagunillas",
                "state_id": 23
            }
        },
        {
            "model": "municipalities.municipalitymodel",
            "pk": 452,
            "fields": {
                "name": "Machiques de Perijá",
                "state_id": 23
            }
        },
        {
            "model": "municipalities.municipalitymodel",
            "pk": 453,
            "fields": {
                "name": "Mara",
                "state_id": 23
            }
        },
        {
            "model": "municipalities.municipalitymodel",
            "pk": 454,
            "fields": {
                "name": "Maracaibo",
                "state_id": 23
            }
        },
        {
            "model": "municipalities.municipalitymodel",
            "pk": 455,
            "fields": {
                "name": "Miranda",
                "state_id": 23
            }
        },
        {
            "model": "municipalities.municipalitymodel",
            "pk": 456,
            "fields": {
                "name": "Rosario de Perijá",
                "state_id": 23
            }
        },
        {
            "model": "municipalities.municipalitymodel",
            "pk": 457,
            "fields": {
                "name": "San Francisco",
                "state_id": 23
            }
        },
        {
            "model": "municipalities.municipalitymodel",
            "pk": 458,
            "fields": {
                "name": "Santa Rita",
                "state_id": 23
            }
        },
        {
            "model": "municipalities.municipalitymodel",
            "pk": 459,
            "fields": {
                "name": "Simón Bolívar",
                "state_id": 23
            }
        },
        {
            "model": "municipalities.municipalitymodel",
            "pk": 460,
            "fields": {
                "name": "Sucre",
                "state_id": 23
            }
        },
        {
            "model": "municipalities.municipalitymodel",
            "pk": 461,
            "fields": {
                "name": "Valmore Rodríguez",
                "state_id": 23
            }
        },
        {
            "model": "municipalities.municipalitymodel",
            "pk": 462,
            "fields": {
                "name": "Libertador",
                "state_id": 24
            }
        }
    ]
}
